
[2021/3/4 22:18:28 GMT+0800] : launched



[2021/3/4 22:18:55 GMT+0800] : launched



[2021/3/5 9:20:6 GMT+0800] : launched



[2021/3/5 9:44:2 GMT+0800] : launched



[2021/3/5 10:43:46 GMT+0800] : launched


